^C:\USERS\VOLFF\SOURCE\REPOS\SNAKE\SNAKE\ACTOR.CPP
/c /Zi /nologo /W3 /WX- /diagnostics:classic /sdl /O2 /Oi /GL /D _MBCS /Gm- /EHsc /MD /GS /Gy /fp:precise /permissive- /Zc:wchar_t /Zc:forScope /Zc:inline /Fo"X64\RELEASE\\" /Fd"X64\RELEASE\VC141.PDB" /Gd /TP /FC C:\USERS\VOLFF\SOURCE\REPOS\SNAKE\SNAKE\ACTOR.CPP
^C:\USERS\VOLFF\SOURCE\REPOS\SNAKE\SNAKE\CLIENTSOCKET.CPP
/c /Zi /nologo /W3 /WX- /diagnostics:classic /sdl /O2 /Oi /GL /D _MBCS /Gm- /EHsc /MD /GS /Gy /fp:precise /permissive- /Zc:wchar_t /Zc:forScope /Zc:inline /Fo"X64\RELEASE\\" /Fd"X64\RELEASE\VC141.PDB" /Gd /TP /FC C:\USERS\VOLFF\SOURCE\REPOS\SNAKE\SNAKE\CLIENTSOCKET.CPP
^C:\USERS\VOLFF\SOURCE\REPOS\SNAKE\SNAKE\COLLISIONMANAGER.CPP
/c /Zi /nologo /W3 /WX- /diagnostics:classic /sdl /O2 /Oi /GL /D _MBCS /Gm- /EHsc /MD /GS /Gy /fp:precise /permissive- /Zc:wchar_t /Zc:forScope /Zc:inline /Fo"X64\RELEASE\\" /Fd"X64\RELEASE\VC141.PDB" /Gd /TP /FC C:\USERS\VOLFF\SOURCE\REPOS\SNAKE\SNAKE\COLLISIONMANAGER.CPP
^C:\USERS\VOLFF\SOURCE\REPOS\SNAKE\SNAKE\CONSOLE.CPP
/c /Zi /nologo /W3 /WX- /diagnostics:classic /sdl /O2 /Oi /GL /D _MBCS /Gm- /EHsc /MD /GS /Gy /fp:precise /permissive- /Zc:wchar_t /Zc:forScope /Zc:inline /Fo"X64\RELEASE\\" /Fd"X64\RELEASE\VC141.PDB" /Gd /TP /FC C:\USERS\VOLFF\SOURCE\REPOS\SNAKE\SNAKE\CONSOLE.CPP
^C:\USERS\VOLFF\SOURCE\REPOS\SNAKE\SNAKE\GAME.CPP
/c /Zi /nologo /W3 /WX- /diagnostics:classic /sdl /O2 /Oi /GL /D _MBCS /Gm- /EHsc /MD /GS /Gy /fp:precise /permissive- /Zc:wchar_t /Zc:forScope /Zc:inline /Fo"X64\RELEASE\\" /Fd"X64\RELEASE\VC141.PDB" /Gd /TP /FC C:\USERS\VOLFF\SOURCE\REPOS\SNAKE\SNAKE\GAME.CPP
^C:\USERS\VOLFF\SOURCE\REPOS\SNAKE\SNAKE\INPUTCONTROLLER.CPP
/c /Zi /nologo /W3 /WX- /diagnostics:classic /sdl /O2 /Oi /GL /D _MBCS /Gm- /EHsc /MD /GS /Gy /fp:precise /permissive- /Zc:wchar_t /Zc:forScope /Zc:inline /Fo"X64\RELEASE\\" /Fd"X64\RELEASE\VC141.PDB" /Gd /TP /FC C:\USERS\VOLFF\SOURCE\REPOS\SNAKE\SNAKE\INPUTCONTROLLER.CPP
^C:\USERS\VOLFF\SOURCE\REPOS\SNAKE\SNAKE\MAIN.CPP
/c /Zi /nologo /W3 /WX- /diagnostics:classic /sdl /O2 /Oi /GL /D _MBCS /Gm- /EHsc /MD /GS /Gy /fp:precise /permissive- /Zc:wchar_t /Zc:forScope /Zc:inline /Fo"X64\RELEASE\\" /Fd"X64\RELEASE\VC141.PDB" /Gd /TP /FC C:\USERS\VOLFF\SOURCE\REPOS\SNAKE\SNAKE\MAIN.CPP
^C:\USERS\VOLFF\SOURCE\REPOS\SNAKE\SNAKE\MAP.CPP
/c /Zi /nologo /W3 /WX- /diagnostics:classic /sdl /O2 /Oi /GL /D _MBCS /Gm- /EHsc /MD /GS /Gy /fp:precise /permissive- /Zc:wchar_t /Zc:forScope /Zc:inline /Fo"X64\RELEASE\\" /Fd"X64\RELEASE\VC141.PDB" /Gd /TP /FC C:\USERS\VOLFF\SOURCE\REPOS\SNAKE\SNAKE\MAP.CPP
^C:\USERS\VOLFF\SOURCE\REPOS\SNAKE\SNAKE\MESH.CPP
/c /Zi /nologo /W3 /WX- /diagnostics:classic /sdl /O2 /Oi /GL /D _MBCS /Gm- /EHsc /MD /GS /Gy /fp:precise /permissive- /Zc:wchar_t /Zc:forScope /Zc:inline /Fo"X64\RELEASE\\" /Fd"X64\RELEASE\VC141.PDB" /Gd /TP /FC C:\USERS\VOLFF\SOURCE\REPOS\SNAKE\SNAKE\MESH.CPP
^C:\USERS\VOLFF\SOURCE\REPOS\SNAKE\SNAKE\NETWORK.CPP
/c /Zi /nologo /W3 /WX- /diagnostics:classic /sdl /O2 /Oi /GL /D _MBCS /Gm- /EHsc /MD /GS /Gy /fp:precise /permissive- /Zc:wchar_t /Zc:forScope /Zc:inline /Fo"X64\RELEASE\\" /Fd"X64\RELEASE\VC141.PDB" /Gd /TP /FC C:\USERS\VOLFF\SOURCE\REPOS\SNAKE\SNAKE\NETWORK.CPP
^C:\USERS\VOLFF\SOURCE\REPOS\SNAKE\SNAKE\PIXEL.CPP
/c /Zi /nologo /W3 /WX- /diagnostics:classic /sdl /O2 /Oi /GL /D _MBCS /Gm- /EHsc /MD /GS /Gy /fp:precise /permissive- /Zc:wchar_t /Zc:forScope /Zc:inline /Fo"X64\RELEASE\\" /Fd"X64\RELEASE\VC141.PDB" /Gd /TP /FC C:\USERS\VOLFF\SOURCE\REPOS\SNAKE\SNAKE\PIXEL.CPP
^C:\USERS\VOLFF\SOURCE\REPOS\SNAKE\SNAKE\SERVERSOCKET.CPP
/c /Zi /nologo /W3 /WX- /diagnostics:classic /sdl /O2 /Oi /GL /D _MBCS /Gm- /EHsc /MD /GS /Gy /fp:precise /permissive- /Zc:wchar_t /Zc:forScope /Zc:inline /Fo"X64\RELEASE\\" /Fd"X64\RELEASE\VC141.PDB" /Gd /TP /FC C:\USERS\VOLFF\SOURCE\REPOS\SNAKE\SNAKE\SERVERSOCKET.CPP
^C:\USERS\VOLFF\SOURCE\REPOS\SNAKE\SNAKE\SNAKE.CPP
/c /Zi /nologo /W3 /WX- /diagnostics:classic /sdl /O2 /Oi /GL /D _MBCS /Gm- /EHsc /MD /GS /Gy /fp:precise /permissive- /Zc:wchar_t /Zc:forScope /Zc:inline /Fo"X64\RELEASE\\" /Fd"X64\RELEASE\VC141.PDB" /Gd /TP /FC C:\USERS\VOLFF\SOURCE\REPOS\SNAKE\SNAKE\SNAKE.CPP
^C:\USERS\VOLFF\SOURCE\REPOS\SNAKE\SNAKE\SNAKECOMMANDS.CPP
/c /Zi /nologo /W3 /WX- /diagnostics:classic /sdl /O2 /Oi /GL /D _MBCS /Gm- /EHsc /MD /GS /Gy /fp:precise /permissive- /Zc:wchar_t /Zc:forScope /Zc:inline /Fo"X64\RELEASE\\" /Fd"X64\RELEASE\VC141.PDB" /Gd /TP /FC C:\USERS\VOLFF\SOURCE\REPOS\SNAKE\SNAKE\SNAKECOMMANDS.CPP
^C:\USERS\VOLFF\SOURCE\REPOS\SNAKE\SNAKE\SOCKET.CPP
/c /Zi /nologo /W3 /WX- /diagnostics:classic /sdl /O2 /Oi /GL /D _MBCS /Gm- /EHsc /MD /GS /Gy /fp:precise /permissive- /Zc:wchar_t /Zc:forScope /Zc:inline /Fo"X64\RELEASE\\" /Fd"X64\RELEASE\VC141.PDB" /Gd /TP /FC C:\USERS\VOLFF\SOURCE\REPOS\SNAKE\SNAKE\SOCKET.CPP
^C:\USERS\VOLFF\SOURCE\REPOS\SNAKE\SNAKE\TILE.CPP
/c /Zi /nologo /W3 /WX- /diagnostics:classic /sdl /O2 /Oi /GL /D _MBCS /Gm- /EHsc /MD /GS /Gy /fp:precise /permissive- /Zc:wchar_t /Zc:forScope /Zc:inline /Fo"X64\RELEASE\\" /Fd"X64\RELEASE\VC141.PDB" /Gd /TP /FC C:\USERS\VOLFF\SOURCE\REPOS\SNAKE\SNAKE\TILE.CPP
