^C:\USERS\VOLFF\SOURCE\REPOS\SNAKE\SNAKE\CONSOLE.CPP|C:\USERS\VOLFF\SOURCE\REPOS\SNAKE\SNAKE\GAME.CPP|C:\USERS\VOLFF\SOURCE\REPOS\SNAKE\SNAKE\MAIN.CPP
C:\USERS\VOLFF\SOURCE\REPOS\SNAKE\SNAKE\X64\RELEASE\VC141.PDB
C:\USERS\VOLFF\SOURCE\REPOS\SNAKE\SNAKE\X64\RELEASE\MAIN.OBJ
C:\USERS\VOLFF\SOURCE\REPOS\SNAKE\SNAKE\X64\RELEASE\GAME.OBJ
C:\USERS\VOLFF\SOURCE\REPOS\SNAKE\SNAKE\X64\RELEASE\CONSOLE.OBJ
^C:\USERS\VOLFF\SOURCE\REPOS\SNAKE\SNAKE\ACTOR.CPP|C:\USERS\VOLFF\SOURCE\REPOS\SNAKE\SNAKE\CLIENTSOCKET.CPP|C:\USERS\VOLFF\SOURCE\REPOS\SNAKE\SNAKE\COLLISIONMANAGER.CPP|C:\USERS\VOLFF\SOURCE\REPOS\SNAKE\SNAKE\CONSOLE.CPP|C:\USERS\VOLFF\SOURCE\REPOS\SNAKE\SNAKE\GAME.CPP|C:\USERS\VOLFF\SOURCE\REPOS\SNAKE\SNAKE\INPUTCONTROLLER.CPP|C:\USERS\VOLFF\SOURCE\REPOS\SNAKE\SNAKE\MAIN.CPP|C:\USERS\VOLFF\SOURCE\REPOS\SNAKE\SNAKE\MAP.CPP|C:\USERS\VOLFF\SOURCE\REPOS\SNAKE\SNAKE\MESH.CPP|C:\USERS\VOLFF\SOURCE\REPOS\SNAKE\SNAKE\NETWORK.CPP|C:\USERS\VOLFF\SOURCE\REPOS\SNAKE\SNAKE\PIXEL.CPP|C:\USERS\VOLFF\SOURCE\REPOS\SNAKE\SNAKE\SERVERSOCKET.CPP|C:\USERS\VOLFF\SOURCE\REPOS\SNAKE\SNAKE\SNAKE.CPP|C:\USERS\VOLFF\SOURCE\REPOS\SNAKE\SNAKE\SNAKECOMMANDS.CPP|C:\USERS\VOLFF\SOURCE\REPOS\SNAKE\SNAKE\SOCKET.CPP|C:\USERS\VOLFF\SOURCE\REPOS\SNAKE\SNAKE\TILE.CPP
C:\USERS\VOLFF\SOURCE\REPOS\SNAKE\SNAKE\X64\RELEASE\VC141.PDB
C:\USERS\VOLFF\SOURCE\REPOS\SNAKE\SNAKE\X64\RELEASE\TILE.OBJ
C:\USERS\VOLFF\SOURCE\REPOS\SNAKE\SNAKE\X64\RELEASE\SOCKET.OBJ
C:\USERS\VOLFF\SOURCE\REPOS\SNAKE\SNAKE\X64\RELEASE\SNAKECOMMANDS.OBJ
C:\USERS\VOLFF\SOURCE\REPOS\SNAKE\SNAKE\X64\RELEASE\SNAKE.OBJ
C:\USERS\VOLFF\SOURCE\REPOS\SNAKE\SNAKE\X64\RELEASE\SERVERSOCKET.OBJ
C:\USERS\VOLFF\SOURCE\REPOS\SNAKE\SNAKE\X64\RELEASE\PIXEL.OBJ
C:\USERS\VOLFF\SOURCE\REPOS\SNAKE\SNAKE\X64\RELEASE\NETWORK.OBJ
C:\USERS\VOLFF\SOURCE\REPOS\SNAKE\SNAKE\X64\RELEASE\MESH.OBJ
C:\USERS\VOLFF\SOURCE\REPOS\SNAKE\SNAKE\X64\RELEASE\MAP.OBJ
C:\USERS\VOLFF\SOURCE\REPOS\SNAKE\SNAKE\X64\RELEASE\MAIN.OBJ
C:\USERS\VOLFF\SOURCE\REPOS\SNAKE\SNAKE\X64\RELEASE\INPUTCONTROLLER.OBJ
C:\USERS\VOLFF\SOURCE\REPOS\SNAKE\SNAKE\X64\RELEASE\GAME.OBJ
C:\USERS\VOLFF\SOURCE\REPOS\SNAKE\SNAKE\X64\RELEASE\CONSOLE.OBJ
C:\USERS\VOLFF\SOURCE\REPOS\SNAKE\SNAKE\X64\RELEASE\COLLISIONMANAGER.OBJ
C:\USERS\VOLFF\SOURCE\REPOS\SNAKE\SNAKE\X64\RELEASE\CLIENTSOCKET.OBJ
C:\USERS\VOLFF\SOURCE\REPOS\SNAKE\SNAKE\X64\RELEASE\ACTOR.OBJ
^C:\USERS\VOLFF\SOURCE\REPOS\SNAKE\SNAKE\ACTOR.CPP
C:\USERS\VOLFF\SOURCE\REPOS\SNAKE\SNAKE\X64\RELEASE\VC141.PDB
^C:\USERS\VOLFF\SOURCE\REPOS\SNAKE\SNAKE\CLIENTSOCKET.CPP
C:\USERS\VOLFF\SOURCE\REPOS\SNAKE\SNAKE\X64\RELEASE\VC141.PDB
^C:\USERS\VOLFF\SOURCE\REPOS\SNAKE\SNAKE\COLLISIONMANAGER.CPP
C:\USERS\VOLFF\SOURCE\REPOS\SNAKE\SNAKE\X64\RELEASE\VC141.PDB
^C:\USERS\VOLFF\SOURCE\REPOS\SNAKE\SNAKE\CONSOLE.CPP
C:\USERS\VOLFF\SOURCE\REPOS\SNAKE\SNAKE\X64\RELEASE\VC141.PDB
^C:\USERS\VOLFF\SOURCE\REPOS\SNAKE\SNAKE\GAME.CPP
C:\USERS\VOLFF\SOURCE\REPOS\SNAKE\SNAKE\X64\RELEASE\VC141.PDB
^C:\USERS\VOLFF\SOURCE\REPOS\SNAKE\SNAKE\INPUTCONTROLLER.CPP
C:\USERS\VOLFF\SOURCE\REPOS\SNAKE\SNAKE\X64\RELEASE\VC141.PDB
^C:\USERS\VOLFF\SOURCE\REPOS\SNAKE\SNAKE\MAIN.CPP
C:\USERS\VOLFF\SOURCE\REPOS\SNAKE\SNAKE\X64\RELEASE\VC141.PDB
^C:\USERS\VOLFF\SOURCE\REPOS\SNAKE\SNAKE\MAP.CPP
C:\USERS\VOLFF\SOURCE\REPOS\SNAKE\SNAKE\X64\RELEASE\VC141.PDB
^C:\USERS\VOLFF\SOURCE\REPOS\SNAKE\SNAKE\MESH.CPP
C:\USERS\VOLFF\SOURCE\REPOS\SNAKE\SNAKE\X64\RELEASE\VC141.PDB
^C:\USERS\VOLFF\SOURCE\REPOS\SNAKE\SNAKE\NETWORK.CPP
C:\USERS\VOLFF\SOURCE\REPOS\SNAKE\SNAKE\X64\RELEASE\VC141.PDB
^C:\USERS\VOLFF\SOURCE\REPOS\SNAKE\SNAKE\PIXEL.CPP
C:\USERS\VOLFF\SOURCE\REPOS\SNAKE\SNAKE\X64\RELEASE\VC141.PDB
^C:\USERS\VOLFF\SOURCE\REPOS\SNAKE\SNAKE\SERVERSOCKET.CPP
C:\USERS\VOLFF\SOURCE\REPOS\SNAKE\SNAKE\X64\RELEASE\VC141.PDB
^C:\USERS\VOLFF\SOURCE\REPOS\SNAKE\SNAKE\SNAKE.CPP
C:\USERS\VOLFF\SOURCE\REPOS\SNAKE\SNAKE\X64\RELEASE\VC141.PDB
^C:\USERS\VOLFF\SOURCE\REPOS\SNAKE\SNAKE\SNAKECOMMANDS.CPP
C:\USERS\VOLFF\SOURCE\REPOS\SNAKE\SNAKE\X64\RELEASE\VC141.PDB
^C:\USERS\VOLFF\SOURCE\REPOS\SNAKE\SNAKE\SOCKET.CPP
C:\USERS\VOLFF\SOURCE\REPOS\SNAKE\SNAKE\X64\RELEASE\VC141.PDB
^C:\USERS\VOLFF\SOURCE\REPOS\SNAKE\SNAKE\TILE.CPP
C:\USERS\VOLFF\SOURCE\REPOS\SNAKE\SNAKE\X64\RELEASE\VC141.PDB
