^D:\VISUALSTUDIO2017PROJECTS\SNAKE\SNAKE\X64\DEBUG\ACTOR.OBJ|D:\VISUALSTUDIO2017PROJECTS\SNAKE\SNAKE\X64\DEBUG\APPLICATION.OBJ|D:\VISUALSTUDIO2017PROJECTS\SNAKE\SNAKE\X64\DEBUG\APPLICATIONSTATES.OBJ|D:\VISUALSTUDIO2017PROJECTS\SNAKE\SNAKE\X64\DEBUG\CLIENT.OBJ|D:\VISUALSTUDIO2017PROJECTS\SNAKE\SNAKE\X64\DEBUG\CLIENTSOCKET.OBJ|D:\VISUALSTUDIO2017PROJECTS\SNAKE\SNAKE\X64\DEBUG\COLLISIONMANAGER.OBJ|D:\VISUALSTUDIO2017PROJECTS\SNAKE\SNAKE\X64\DEBUG\CONSOLE.OBJ|D:\VISUALSTUDIO2017PROJECTS\SNAKE\SNAKE\X64\DEBUG\DATABASE.OBJ|D:\VISUALSTUDIO2017PROJECTS\SNAKE\SNAKE\X64\DEBUG\GAMESTATE.OBJ|D:\VISUALSTUDIO2017PROJECTS\SNAKE\SNAKE\X64\DEBUG\INPUTCOMMANDS.OBJ|D:\VISUALSTUDIO2017PROJECTS\SNAKE\SNAKE\X64\DEBUG\INPUTCONTROLLER.OBJ|D:\VISUALSTUDIO2017PROJECTS\SNAKE\SNAKE\X64\DEBUG\MAIN.OBJ|D:\VISUALSTUDIO2017PROJECTS\SNAKE\SNAKE\X64\DEBUG\MAP.OBJ|D:\VISUALSTUDIO2017PROJECTS\SNAKE\SNAKE\X64\DEBUG\MENUSTATE.OBJ|D:\VISUALSTUDIO2017PROJECTS\SNAKE\SNAKE\X64\DEBUG\MESH.OBJ|D:\VISUALSTUDIO2017PROJECTS\SNAKE\SNAKE\X64\DEBUG\NETWORKEVENT.OBJ|D:\VISUALSTUDIO2017PROJECTS\SNAKE\SNAKE\X64\DEBUG\NETWORKMANAGER.OBJ|D:\VISUALSTUDIO2017PROJECTS\SNAKE\SNAKE\X64\DEBUG\PIXEL.OBJ|D:\VISUALSTUDIO2017PROJECTS\SNAKE\SNAKE\X64\DEBUG\SERIALIZEDDATA.OBJ|D:\VISUALSTUDIO2017PROJECTS\SNAKE\SNAKE\X64\DEBUG\SERVER.OBJ|D:\VISUALSTUDIO2017PROJECTS\SNAKE\SNAKE\X64\DEBUG\SERVERSOCKET.OBJ|D:\VISUALSTUDIO2017PROJECTS\SNAKE\SNAKE\X64\DEBUG\SNAKE.OBJ|D:\VISUALSTUDIO2017PROJECTS\SNAKE\SNAKE\X64\DEBUG\SOCKET.OBJ|D:\VISUALSTUDIO2017PROJECTS\SNAKE\SNAKE\X64\DEBUG\TILE.OBJ|D:\VISUALSTUDIO2017PROJECTS\SNAKE\SNAKE\X64\DEBUG\WINDOW.OBJ|D:\VISUALSTUDIO2017PROJECTS\SNAKE\SNAKE\X64\DEBUG\WINDOWOPTION.OBJ
D:\VISUALSTUDIO2017PROJECTS\SNAKE\X64\DEBUG\SNAKE.EXE
D:\VISUALSTUDIO2017PROJECTS\SNAKE\X64\DEBUG\SNAKE.ILK
D:\VISUALSTUDIO2017PROJECTS\SNAKE\X64\DEBUG\SNAKE.PDB
