^D:\VISUALSTUDIO2017PROJECTS\SNAKE\SNAKE\RELEASE\ACTOR.OBJ|D:\VISUALSTUDIO2017PROJECTS\SNAKE\SNAKE\RELEASE\APPLICATION.OBJ|D:\VISUALSTUDIO2017PROJECTS\SNAKE\SNAKE\RELEASE\APPLICATIONSTATES.OBJ|D:\VISUALSTUDIO2017PROJECTS\SNAKE\SNAKE\RELEASE\CLIENT.OBJ|D:\VISUALSTUDIO2017PROJECTS\SNAKE\SNAKE\RELEASE\CLIENTSOCKET.OBJ|D:\VISUALSTUDIO2017PROJECTS\SNAKE\SNAKE\RELEASE\COLLISIONMANAGER.OBJ|D:\VISUALSTUDIO2017PROJECTS\SNAKE\SNAKE\RELEASE\CONSOLE.OBJ|D:\VISUALSTUDIO2017PROJECTS\SNAKE\SNAKE\RELEASE\CONSOLERENDERER.OBJ|D:\VISUALSTUDIO2017PROJECTS\SNAKE\SNAKE\RELEASE\DATABASE.OBJ|D:\VISUALSTUDIO2017PROJECTS\SNAKE\SNAKE\RELEASE\FRUIT.OBJ|D:\VISUALSTUDIO2017PROJECTS\SNAKE\SNAKE\RELEASE\FRUITSPAWNER.OBJ|D:\VISUALSTUDIO2017PROJECTS\SNAKE\SNAKE\RELEASE\GAMESTATE.OBJ|D:\VISUALSTUDIO2017PROJECTS\SNAKE\SNAKE\RELEASE\INPUTCOMMANDS.OBJ|D:\VISUALSTUDIO2017PROJECTS\SNAKE\SNAKE\RELEASE\INPUTCONTROLLER.OBJ|D:\VISUALSTUDIO2017PROJECTS\SNAKE\SNAKE\RELEASE\MAIN.OBJ|D:\VISUALSTUDIO2017PROJECTS\SNAKE\SNAKE\RELEASE\MAP.OBJ|D:\VISUALSTUDIO2017PROJECTS\SNAKE\SNAKE\RELEASE\MENUSTATE.OBJ|D:\VISUALSTUDIO2017PROJECTS\SNAKE\SNAKE\RELEASE\MESH.OBJ|D:\VISUALSTUDIO2017PROJECTS\SNAKE\SNAKE\RELEASE\NETWORKADDRESS.OBJ|D:\VISUALSTUDIO2017PROJECTS\SNAKE\SNAKE\RELEASE\NETWORKEVENT.OBJ|D:\VISUALSTUDIO2017PROJECTS\SNAKE\SNAKE\RELEASE\NETWORKMANAGER.OBJ|D:\VISUALSTUDIO2017PROJECTS\SNAKE\SNAKE\RELEASE\PIXEL.OBJ|D:\VISUALSTUDIO2017PROJECTS\SNAKE\SNAKE\RELEASE\SERIALIZEDDATA.OBJ|D:\VISUALSTUDIO2017PROJECTS\SNAKE\SNAKE\RELEASE\SERVER.OBJ|D:\VISUALSTUDIO2017PROJECTS\SNAKE\SNAKE\RELEASE\SERVERSOCKET.OBJ|D:\VISUALSTUDIO2017PROJECTS\SNAKE\SNAKE\RELEASE\SETTINGS.OBJ|D:\VISUALSTUDIO2017PROJECTS\SNAKE\SNAKE\RELEASE\SNAKE.OBJ|D:\VISUALSTUDIO2017PROJECTS\SNAKE\SNAKE\RELEASE\SOCKET.OBJ|D:\VISUALSTUDIO2017PROJECTS\SNAKE\SNAKE\RELEASE\TILE.OBJ|D:\VISUALSTUDIO2017PROJECTS\SNAKE\SNAKE\RELEASE\WINDOW.OBJ|D:\VISUALSTUDIO2017PROJECTS\SNAKE\SNAKE\RELEASE\WINDOWOPTION.OBJ
D:\VISUALSTUDIO2017PROJECTS\SNAKE\RELEASE\SNAKE.EXE
D:\VISUALSTUDIO2017PROJECTS\SNAKE\RELEASE\SNAKE.PDB
